…
Now let’s tidy the data so it can be analyzed. I want to summarize all
of the cases and deaths by county.

``` r
us_cases_clean <- us_covid_cases %>%
  select(-c('Lat', 'Long_', 'UID', 'iso2', 'iso3', 'code3', 'FIPS', 'Country_Region', 'Combined_Key'))
us_cases_clean <-  us_cases_clean %>%
  pivot_longer(cols = -c('Admin2', 'Province_State'),
               names_to = "date",
               values_to = "cases")
us_cases_clean
```

    ## # A tibble: 3,819,906 × 4
    ##    Admin2  Province_State date    cases
    ##    <chr>   <chr>          <chr>   <dbl>
    ##  1 Autauga Alabama        1/22/20     0
    ##  2 Autauga Alabama        1/23/20     0
    ##  3 Autauga Alabama        1/24/20     0
    ##  4 Autauga Alabama        1/25/20     0
    ##  5 Autauga Alabama        1/26/20     0
    ##  6 Autauga Alabama        1/27/20     0
    ##  7 Autauga Alabama        1/28/20     0
    ##  8 Autauga Alabama        1/29/20     0
    ##  9 Autauga Alabama        1/30/20     0
    ## 10 Autauga Alabama        1/31/20     0
    ## # ℹ 3,819,896 more rows
…
